Prostate Cancer Variation Signature Analysis Report
…
Next, we keep keys of all data.frames are same and merge them into one.

# Merge data --------------------------------------------------------------
Info <- Info %>%
  dplyr::mutate(
    CNV_ID = dplyr::case_when(
      !startsWith(tumor_Run, "TCGA") & !is.na(tumor_Run) ~ paste(subject_id, tumor_Run, sep = "-"),
      startsWith(tumor_Run, "TCGA") & !is.na(tumor_Run) ~ tumor_Run,
      TRUE ~ NA_character_
    )
  )

PurityInfo
#> # A tibble: 938 x 3
#>    purity ploidy sample             
#>     <dbl>  <dbl> <chr>              
#>  1   0.59    1.9 00-000450-SRR474658
#>  2   0.55    1.9 00-1165-SRR461844  
#>  3   0.75    1.9 00-160-SRR471373   
#>  4   0.72    2   00-1823-SRR471613  
#>  5   0.73    2   01-1934-SRR471793  
#>  6   0.4     1.9 01-2382-SRR471433  
#>  7   0.45    4.1 01-2492-SRR471733  
#>  8   0.73    2   01-2554-SRR471673  
#>  9   0.22    3.4 01-28-SRR471073    
#> 10   0.35    2   02-1082-SRR472616  
#> # … with 928 more rows
…
